<?xml version="1.0" encoding="UTF-8"?>
<svg width="40px" height="40px" viewBox="0 0 40 40" version="1.1" xmlns="http://www.w3.org/2000/svg" xmlns:xlink="http://www.w3.org/1999/xlink">
    <!-- Generator: Sketch 61.1 (89650) - https://sketch.com -->
    <title>twitter</title>
    <desc>Created with Sketch.</desc>
    <defs>
        <polygon id="path-1" points="0.0046875 0 40 0 40 40 0.0046875 40"></polygon>
    </defs>
    <g id="Page-1" stroke="none" stroke-width="1" fill="none" fill-rule="evenodd">
        <g id="Desktop-HD" transform="translate(-911.000000, -2847.000000)">
            <g id="twitter" transform="translate(911.000000, 2847.000000)">
                <g id="001-twitter">
                    <mask id="mask-2" fill="white">
                        <use xlink:href="#path-1"></use>
                    </mask>
                    <g id="Clip-2"></g>
                    <path d="M20,0 C8.95601562,0 0,8.95601562 0,20 C0,31.0439844 8.95601562,40 20,40 C31.0439844,40 40,31.0439844 40,20 C40,8.95601562 31.0439844,0 20,0 Z M29.1317969,15.5939062 C29.140625,15.7907031 29.1449219,15.9884375 29.1449219,16.1871094 C29.1449219,22.253125 24.5275781,29.2480469 16.0836719,29.2483594 L16.0839844,29.2483594 L16.0836719,29.2483594 C13.49125,29.2483594 11.0788281,28.4884375 9.04726563,27.18625 C9.40640625,27.2286719 9.77203125,27.2497656 10.1421875,27.2497656 C12.293125,27.2497656 14.2725,26.5160937 15.8438281,25.2847656 C13.8342188,25.2475 12.1399219,23.9203125 11.5551563,22.09625 C11.835,22.15 12.1228125,22.1792969 12.4178906,22.1792969 C12.836875,22.1792969 13.2428125,22.1228125 13.6285156,22.0175 C11.5280469,21.5969531 9.94570313,19.740625 9.94570313,17.5177344 C9.94570313,17.4969531 9.94570313,17.4783594 9.94625,17.4591406 C10.5648437,17.8030469 11.2722656,18.0099219 12.0254688,18.033125 C10.7928125,17.2107031 9.98257813,15.8047656 9.98257813,14.2120313 C9.98257813,13.3709375 10.21,12.5829688 10.6042188,11.9046094 C12.8680469,14.6823437 16.25125,16.5090625 20.0665625,16.7010156 C19.9878125,16.3647656 19.9471875,16.014375 19.9471875,15.6542969 C19.9471875,13.1201563 22.0032031,11.0641406 24.5382813,11.0641406 C25.85875,11.0641406 27.0514062,11.6223438 27.8890625,12.5146875 C28.9349219,12.3083594 29.9170312,11.92625 30.8041406,11.4004687 C30.4607813,12.4719531 29.7332813,13.3709375 28.7853906,13.9395312 C29.7140625,13.8284375 30.5990625,13.5821875 31.4214844,13.2165625 C30.8071875,14.1372656 30.0280469,14.9460156 29.1317969,15.5939062 Z" id="Fill-1" fill="#333333" mask="url(#mask-2)"></path>
                </g>
            </g>
        </g>
    </g>
</svg>