<?xml version="1.0" encoding="UTF-8"?>
<svg width="40px" height="40px" viewBox="0 0 40 40" version="1.1" xmlns="http://www.w3.org/2000/svg" xmlns:xlink="http://www.w3.org/1999/xlink">
    <!-- Generator: Sketch 61.1 (89650) - https://sketch.com -->
    <title>youtube</title>
    <desc>Created with Sketch.</desc>
    <defs>
        <polygon id="path-1" points="0.0046875 0 40 0 40 40 0.0046875 40"></polygon>
    </defs>
    <g id="Page-1" stroke="none" stroke-width="1" fill="none" fill-rule="evenodd">
        <g id="Desktop-HD" transform="translate(-971.000000, -2847.000000)">
            <g id="youtube" transform="translate(971.000000, 2847.000000)">
                <g id="004-youtube">
                    <mask id="mask-2" fill="white">
                        <use xlink:href="#path-1"></use>
                    </mask>
                    <g id="Clip-2"></g>
                    <polygon id="Fill-1" fill="#333333" mask="url(#mask-2)" points="17.5088281 23.7469531 24.0146094 20 17.5088281 16.2530469"></polygon>
                    <path d="M20,0 C8.95601562,0 0,8.95601562 0,20 C0,31.0439844 8.95601562,40 20,40 C31.0439844,40 40,31.0439844 40,20 C40,8.95601562 31.0439844,0 20,0 Z M32.497061,20.0204687 C32.497061,20.0204687 32.497061,24.0765625 31.9824219,26.0324219 C31.6940625,27.1029688 30.8499219,27.9471094 29.779375,28.2351562 C27.8235156,28.75 20,28.75 20,28.75 C20,28.75 12.1969531,28.75 10.220625,28.2146875 C9.15007813,27.9266406 8.3059375,27.0821875 8.01757813,26.0116406 C7.50273438,24.0765625 7.50273438,20 7.50273438,20 C7.50273438,20 7.50273438,15.9442188 8.01757813,13.9883594 C8.305625,12.9178125 9.17054688,12.0528906 10.220625,11.7648437 C12.1764844,11.25 20,11.25 20,11.25 C20,11.25 27.8235156,11.25 29.779375,11.7853125 C30.8499219,12.0733594 31.6940625,12.9178125 31.9824219,13.9883594 C32.5177344,15.9442188 32.497061,20.0204687 32.497061,20.0204687 Z" id="Fill-3" fill="#333333" mask="url(#mask-2)"></path>
                </g>
            </g>
        </g>
    </g>
</svg>